[
    {
        "entry": [
            {
                "name": "username",
                "value": "hello@sample.com"
            },
            {
                "name": "password",
                "value": "helloworld"
            }
        ],
        "name": "brcm-demo-hello-world-samplei-kvm-sample_credentials"
    }
]